%YAML 1.1
%TAG !u! tag:unity3d.com,2011:
--- !u!21 &2100000
Material:
  serializedVersion: 6
  m_ObjectHideFlags: 0
  m_CorrespondingSourceObject: {fileID: 0}
  m_PrefabInstance: {fileID: 0}
  m_PrefabAsset: {fileID: 0}
  m_Name: oceanMaterial 3
  m_Shader: {fileID: -6465566751694194690, guid: 5e1a05d173803434b8404cba66ef6770, type: 3}
  m_ShaderKeywords: 
  m_LightmapFlags: 4
  m_EnableInstancingVariants: 0
  m_DoubleSidedGI: 0
  m_CustomRenderQueue: -1
  stringTagMap: {}
  disabledShaderPasses: []
  m_SavedProperties:
    serializedVersion: 3
    m_TexEnvs:
    - Texture2D_384bc7aaecbe4257857671bce06e8ea7:
        m_Texture: {fileID: 2800000, guid: 962e7011bdfafb0448f14434b76ead9c, type: 3}
        m_Scale: {x: 1, y: 1}
        m_Offset: {x: 0, y: 0}
    - Texture2D_96d3fdb52c6d441cae5136d4ad0651da:
        m_Texture: {fileID: 2800000, guid: 962e7011bdfafb0448f14434b76ead9c, type: 3}
        m_Scale: {x: 1, y: 1}
        m_Offset: {x: 0, y: 0}
    - _BumpMap:
        m_Texture: {fileID: 0}
        m_Scale: {x: 1, y: 1}
        m_Offset: {x: 0, y: 0}
    - _DetailAlbedoMap:
        m_Texture: {fileID: 0}
        m_Scale: {x: 1, y: 1}
        m_Offset: {x: 0, y: 0}
    - _DetailMask:
        m_Texture: {fileID: 0}
        m_Scale: {x: 1, y: 1}
        m_Offset: {x: 0, y: 0}
    - _DetailNormalMap:
        m_Texture: {fileID: 0}
        m_Scale: {x: 1, y: 1}
        m_Offset: {x: 0, y: 0}
    - _EmissionMap:
        m_Texture: {fileID: 0}
        m_Scale: {x: 1, y: 1}
        m_Offset: {x: 0, y: 0}
    - _MainTex:
        m_Texture: {fileID: 0}
        m_Scale: {x: 1, y: 1}
        m_Offset: {x: 0, y: 0}
    - _MetallicGlossMap:
        m_Texture: {fileID: 0}
        m_Scale: {x: 1, y: 1}
        m_Offset: {x: 0, y: 0}
    - _OcclusionMap:
        m_Texture: {fileID: 0}
        m_Scale: {x: 1, y: 1}
        m_Offset: {x: 0, y: 0}
    - _ParallaxMap:
        m_Texture: {fileID: 0}
        m_Scale: {x: 1, y: 1}
        m_Offset: {x: 0, y: 0}
    - unity_Lightmaps:
        m_Texture: {fileID: 0}
        m_Scale: {x: 1, y: 1}
        m_Offset: {x: 0, y: 0}
    - unity_LightmapsInd:
        m_Texture: {fileID: 0}
        m_Scale: {x: 1, y: 1}
        m_Offset: {x: 0, y: 0}
    - unity_ShadowMasks:
        m_Texture: {fileID: 0}
        m_Scale: {x: 1, y: 1}
        m_Offset: {x: 0, y: 0}
    m_Floats:
    - Vector1_6c64e961f5d34dce80a5adf8eca2d95a: 8
    - Vector1_b0143b6eca654d2292f074b62e35c639: 1
    - Vector1_c1e7d790acb3432cabe661632a2b238a: 50
    - Vector1_cd84c4d8884d44349f0ef65ea7cbfa38: 0.2
    - _BumpScale: 1
    - _Cutoff: 0.5
    - _DetailNormalMapScale: 1
    - _DstBlend: 0
    - _GlossMapScale: 1
    - _Glossiness: 0.5
    - _GlossyReflections: 1
    - _Metallic: 0
    - _Mode: 0
    - _OcclusionStrength: 1
    - _Parallax: 0.02
    - _SmoothnessTextureChannel: 0
    - _SpecularHighlights: 1
    - _SrcBlend: 1
    - _UVSec: 0
    - _ZWrite: 1
    m_Colors:
    - Color_060c32118dc04cf4a20dfe869dac88ef: {r: 1, g: 1, b: 1, a: 0}
    - Color_5530ba84038040d295342c81132402bf: {r: 0, g: 0.6745095, b: 1, a: 1}
    - Color_92bc9578ea48471997ca4ab07e4c8055: {r: 0, g: 0.3019608, b: 0.5019608, a: 1}
    - Vector2_664f93f489e64663b3470311e9f2f0bd: {r: 0.03, g: 0, b: 0, a: 0}
    - Vector2_986cdf6cbb9549d8891be7b21fe5d952: {r: 0, g: 0.1, b: 0, a: 0}
    - _Color: {r: 1, g: 1, b: 1, a: 1}
    - _EmissionColor: {r: 0, g: 0, b: 0, a: 1}
  m_BuildTextureStacks: []
